absen
"00007689;"""";""00007689"";11/8/2017 9:59 AM;""C/In"";"""";Tak Tepat;"
"00007689;"""";""00007689"";11/9/2017 9:38 AM;""C/In"";"""";Tak Tepat;"
"00207818;"""";""00207818"";11/8/2017 10:01 AM;""C/In"";"""";Tak Tepat;"
"00207818;"""";""00207818"";11/9/2017 9:39 AM;""C/In"";"""";Tak Tepat;"
"00207930;"""";""00207930"";11/8/2017 10:02 AM;""C/In"";"""";Tak Tepat;"
"00207930;"""";""00207930"";11/9/2017 9:38 AM;""C/In"";"""";Tak Tepat;"
"00207947;"""";""00207947"";11/9/2017 2:57 PM;""C/In"";"""";Tak Tepat;"
"00207947;"""";""00207947"";11/10/2017 10:09 AM;""C/In"";"""";Tak Tepat;"
"00207948;"""";""00207948"";11/9/2017 2:56 PM;""C/In"";"""";Tak Tepat;"
"00207948;"""";""00207948"";11/10/2017 10:08 AM;""C/In"";"""";Tak Tepat;"
"00208006;"""";""00208006"";11/9/2017 2:56 PM;""C/In"";"""";Mengulang;"
"00208006;"""";""00208006"";11/9/2017 2:56 PM;""C/In"";"""";Tak Tepat;"
"00208006;"""";""00208006"";11/10/2017 10:08 AM;""C/In"";"""";Tak Tepat;"
"00307658;"""";""00307658"";11/8/2017 10:47 AM;""C/In"";"""";Tak Tepat;"
"00307658;"""";""00307658"";11/9/2017 9:35 AM;""C/In"";"""";Tak Tepat;"
"00307667;"""";""00307667"";11/8/2017 9:58 AM;""C/In"";"""";Tak Tepat;"
"00307727;"""";""00307727"";11/8/2017 10:00 AM;""C/In"";"""";Tak Tepat;"
"00307727;"""";""00307727"";11/9/2017 9:38 AM;""C/In"";"""";Tak Tepat;"
"00307931;"""";""00307931"";11/9/2017 2:55 PM;""C/In"";"""";Tak Tepat;"
"00307931;"""";""00307931"";11/10/2017 10:09 AM;""C/In"";"""";Tak Tepat;"
"00407740;"""";""00407740"";11/8/2017 10:00 AM;""C/In"";"""";Tak Tepat;"
"00407740;"""";""00407740"";11/9/2017 9:41 AM;""C/In"";"""";Tak Tepat;"
"00407917;"""";""00407917"";11/10/2017 10:09 AM;""C/In"";"""";Tak Tepat;"
"00408296;"""";""00408296"";11/8/2017 11:16 AM;""C/In"";"""";Tak Tepat;"
"00408296;"""";""00408296"";11/9/2017 9:35 AM;""C/In"";"""";Tak Tepat;"
"00508048;"""";""00508048"";11/8/2017 10:00 AM;""C/In"";"""";Tak Tepat;"
"00508048;"""";""00508048"";11/9/2017 9:35 AM;""C/In"";"""";Tak Tepat;"
"00508603;"""";""00508603"";11/8/2017 10:44 AM;""C/In"";"""";Tak Tepat;"
"00508603;"""";""00508603"";11/9/2017 9:56 AM;""C/In"";"""";Tak Tepat;"
"00508607;"""";""00508607"";11/8/2017 11:17 AM;""C/In"";"""";Tak Tepat;"
"00508607;"""";""00508607"";11/9/2017 9:39 AM;""C/In"";"""";Tak Tepat;"
"00508607;"""";""00508607"";11/9/2017 10:22 AM;""C/In"";"""";Tak Tepat;"
"00508913;"""";""00508913"";11/8/2017 10:10 AM;""C/In"";"""";Tak Tepat;"
"00508913;"""";""00508913"";11/9/2017 9:39 AM;""C/In"";"""";Tak Tepat;"
"00607824;"""";""00607824"";11/8/2017 10:46 AM;""C/In"";"""";Tak Tepat;"
"00607824;"""";""00607824"";11/9/2017 9:53 AM;""C/In"";"""";Tak Tepat;"
"00708644;"""";""00708644"";11/8/2017 10:01 AM;""C/In"";"""";Tak Tepat;"
"00708644;"""";""00708644"";11/9/2017 9:38 AM;""C/In"";"""";Tak Tepat;"
"00807654;"""";""00807654"";11/9/2017 2:56 PM;""C/In"";"""";Tak Tepat;"
"00807987;"""";""00807987"";11/8/2017 9:59 AM;""C/In"";"""";Tak Tepat;"
"00807987;"""";""00807987"";11/9/2017 9:38 AM;""C/In"";"""";Tak Tepat;"
"00907694;"""";""00907694"";11/9/2017 2:56 PM;""C/In"";"""";Tak Tepat;"
"00907694;"""";""00907694"";11/10/2017 10:09 AM;""C/In"";"""";Tak Tepat;"
"00907748;"""";""00907748"";11/8/2017 10:45 AM;""C/In"";"""";Tak Tepat;"
"00907748;"""";""00907748"";11/9/2017 9:35 AM;""C/In"";"""";Tak Tepat;"
"01008060;"""";""01008060"";11/9/2017 2:17 PM;""C/In"";"""";Tak Tepat;"
"01207673;"""";""01207673"";11/9/2017 2:56 PM;""C/In"";"""";Tak Tepat;"
"01207673;"""";""01207673"";11/10/2017 10:09 AM;""C/In"";"""";Tak Tepat;"
"09707654;"""";""09707654"";11/8/2017 10:10 AM;""C/In"";"""";Tak Tepat;"
"09707664;"""";""09707664"";11/8/2017 10:10 AM;""C/In"";"""";Tak Tepat;"
"09707664;"""";""09707664"";11/9/2017 9:38 AM;""C/In"";"""";Tak Tepat;"
"09907668;"""";""09907668"";11/9/2017 2:56 PM;""C/In"";"""";Tak Tepat;"
"09907668;"""";""09907668"";11/10/2017 10:09 AM;""C/In"";"""";Tak Tepat;"
